<?xml version="1.0" encoding="UTF-8" standalone="no"?>
<!-- Created with Inkscape (http://www.inkscape.org/) -->

<svg
   version="1.1"
   id="svg1"
   width="81.919998"
   height="81.919998"
   viewBox="0 0 81.919998 81.919998"
   sodipodi:docname="icon.svg"
   inkscape:version="1.3.2 (091e20ef0f, 2023-11-25, custom)"
   xmlns:inkscape="http://www.inkscape.org/namespaces/inkscape"
   xmlns:sodipodi="http://sodipodi.sourceforge.net/DTD/sodipodi-0.dtd"
   xmlns:xlink="http://www.w3.org/1999/xlink"
   xmlns="http://www.w3.org/2000/svg"
   xmlns:svg="http://www.w3.org/2000/svg">
  <defs
     id="defs1" />
  <sodipodi:namedview
     id="namedview1"
     pagecolor="#ffffff"
     bordercolor="#000000"
     borderopacity="0.25"
     inkscape:showpageshadow="2"
     inkscape:pageopacity="0.0"
     inkscape:pagecheckerboard="0"
     inkscape:deskcolor="#d1d1d1"
     inkscape:zoom="10.534668"
     inkscape:cx="40.959999"
     inkscape:cy="40.959999"
     inkscape:window-width="1920"
     inkscape:window-height="1056"
     inkscape:window-x="0"
     inkscape:window-y="24"
     inkscape:window-maximized="1"
     inkscape:current-layer="g1" />
  <g
     inkscape:groupmode="layer"
     inkscape:label="Image"
     id="g1">
    <image
       width="81.919998"
       height="81.919998"
       preserveAspectRatio="none"
       xlink:href="data:image/png;base64,iVBORw0KGgoAAAANSUhEUgAAAQAAAAEACAYAAABccqhmAAAACXBIWXMAAC4jAAAuIwF4pT92AAAP&#10;J0lEQVR4Xu2dMYhdxxWGd5NFYBCIENS4UhKRJtjEKEgiOE1wmi0DYb2FCQIngTSxStcqBKlUBUIE&#10;TtjCCu63iUo3MloMMioS2GQhWM06CnbjwrE2eRLP0Z19786dO+fMnDPzuZPvzDn/fGfmf3PnvXt3&#10;87e/+f7JBv9BAAJdEvhal6Nm0BCAwFMCGAATAQIdE8AAOi4+Q4cABsAcgEDHBDCAjovP0CGAATAH&#10;INAxAQyg4+IzdAhgAMwBCHRMAAPouPgMHQIYAHMAAh0TwAA6Lj5Dh8BWKoLrN86kdqE9BCBghMDO&#10;7uOBEnYARgqDDAjUIIAB1KBOTggYIYABGCkEMiBQgwAGUIM6OSFghAAGYKQQyIBADQIYQA3q5ISA&#10;EQIYgJFCIAMCNQhgADWokxMCRghgAEYKgQwI1CCAAdSgTk4IGCGAARgpBDIgUIMABlCDOjkhYIQA&#10;BmCkEMiAQA0CGEAN6uSEgBECGICRQiADAjUIYAA1qJMTAkYIYABGCoEMCNQggAHUoE5OCBghgAEY&#10;KQQyIFCDAAZQgzo5IWCEAAZgpBDIgEANAhhADerkhIARAhiAkUIgAwI1CGAANaiTEwJGCGAARgqB&#10;DAjUIIAB1KBOTggYIYABGCkEMiBQg0Dy3wasIZKcEKhN4Mr217Mk3Nv/Mqu/Vmd2AFpkidsMgdzF&#10;vwAhEUMDKAagQZWYzRCQXLiSsaQAYwBSJIkDAYcEOANwWDQk1yPwxovDz8y9R08GYmLX6ylfnZkd&#10;gLWKoAcCBQlgAAVhkwoC1ghgANYqgh4IFCTAGUBB2KSyS2DqCf329vcGg9i7/dHg37Hr1giwA7BW&#10;EfQUJzB18RcXViAhBlAAMinsEuh58S+qggHYnZsog4A6Ac4A1BGTwBMBb9/j57JlB5BLkP4QcEwA&#10;A3BcPKRDIJcABpBLkP4QcEyAMwDHxXteeu3TbKvPu6eW19v3+KnjC9uzA8glaKB/7cW/QGBBg4FS&#10;uJOAAbgr2VCwpYVnSYvzshaTjwEUQ00iCNgjwBmAvZpMUrTu0/buzWuT+ks1eu3tdwah1unyekbw&#10;7psvjaIKr+8GzwZIcdaKww5Ai6xiXI9bbY+aFUtoJjQGYKYU04R4XkietU+rzngri7sgDECissSA&#10;QISAxcW/kMwZgJOpO/We//jwftaIvvvz3w/6/+1PvxqNF545fOPVXwzaX/rRDyedEWSJntB56gIM&#10;7+FjZwCx1FPzxuJoXWcHoEVWMG7vW2cJlDBcTREDkJhdijGYuHJwV7G0/gktN3oMQJsl8Z0S6NkE&#10;OANwNmnDe1Lpe/7Nzc0BkZOTk9EzgfCeP9b/3+//oSjx1N8p9Lbj4hag6HQkmVUCvS38ZR0wAKsz&#10;El3FCfRoAhhA8WlGQgjYIcAZgJ1aiCjZ3384iBM+3x4mCb/n/+sffzl6zy/dX2TQI0Fi3+N7++2+&#10;NC92ANJEiQcBRwQwAEfFQioEpAlgANJEiQcBRwSSzwB2dh87Gl4LUs8nDSJ2z58UTKBx+GzBrZ1X&#10;B1Hf+vP7g3+Xvi4wxNEQ1tcLOwDtGUB8CBgmgAEYLg7SIKBNAAPQJkx8CBgmkHwGcPXiWcPDaU/a&#10;0YGvMYW/Q9i9PXwfQDiaveB9AaWva9O1vl7YAWjPAOJDwDABDMBwcZAGAW0CGIA2YeJDwDCB5DMA&#10;w2NBmgECp36HEDybYO17/71HTwxQqyeBHUA99mSGQHUCGED1EiAAAvUIYAD12JMZAtUJbH7x2eXh&#10;S9+qS8oTEP72OvY97PUbZ/ISKvcO31ITe75dWY778KnP/6fyDuNbf+EoOwD3U5oBQGA+AQxgPjt6&#10;NkbA+qe1Bm4MQIMqMd0R6HHxL4rE7wCcTVXpv13nbPhRuan3+L0u/CVIdgDRKUUDCLRLAAMwXtve&#10;P6E0y/P6pc81w7uIjQE4KBMmIF8kFv8zpt2cAdw5eGHlLLqzLT+5SkasfSaQes9dks1YruV88F7/&#10;XJ5d7ADWLf5cePSHgHcCzRsAi9/7FEW/JoHmDUATHrEh4J1As2cAR5+ufp/+3ZvXTNfsd3/5V6a+&#10;fwz6v/f3bw3+/bNvD6/HkoX9w/Y//fEwfizer3/yzVgTU9ePD++b0iMtpskdwLrFLw2PeBDwTqA5&#10;A2Dxe5+S6C9JoDkDKAmPXBDwTqDZM4BlYcLnua3f0338SV5J3tsY3pN//Mk/h2cCwfXwTODWB2H+&#10;Yf/cCX98mHYGkZuP/uME2AEwQyDQMQEMoOPiM3QIYADMAQh0TCDvhrNjcFJDP33PnRc5vOcPo4XX&#10;b2WeOeSp9d/b67MQS/LsAPzPQUYAgdkEMIDZ6OgIgXECHh7jxgCYxRBQIOBh8S+GzRlAUPzS93RX&#10;Xn5ldPrde/Dh6PVYf4W5naQ31Feab/Hx739ZOmVWPnYAWfjoDAHfBDAA3/VDvSECXrb9zyPDAAxN&#10;IKT4JeBx8XMGMGG+SRc2/Ft/4T2+tXv6CYiSzgTCxtJ8W/vbkLn8Y/3ZAcQIcR0CDRPAAAoXV/oT&#10;r7B80XSwEMU5KxgGMAtbXicm/sYGDPLmkFRvfgcgRTIxznIBxM4EEsOaa85CN1eSgSB2ALbrgzoI&#10;qBLAAFTxxoOnfEKmtI1npgUENjYwAAOzYMrCntLGwFCQ4IzAVvi9qTP9K+Su/nsAc8dVis+Fc+MK&#10;d3aX12XHN5fL1H6l+E3VE7azrm/uuKb2YwcwlRTtINAgAQygwaIyJAhMJYABTCVFOwg0SGDr6sWz&#10;TQ3r6EB2ONb4SI9PltbpaNb4hQqt69OuDzsAbcLEh4BhAhiA4eIgDQLaBDAAbcLEh4BhAhiA4eIg&#10;DQLaBDAAbcLEh4BhAhiA4eIgDQLaBDAAbcLEh4BhAhiA4eIgDQLaBDAAbcLEh4BhAhiA4eIgDQLa&#10;BDAAbcLEh4BhAlvXb5wxLC9d2p3t9D5jPazxkR6fLK3T0azx0x6vt/jsALxVDL0QECSAAQjCJBQE&#10;vBHAALxVDL0QECSAAURgLt7bH767X5A/oSBQlQAGMBE/JjARFM1cEcAAEsqFCSTAoqkLAhiAizIh&#10;EgI6BJr524BSn87vvvnSgPTu7Y90yCdGlRpfYtrs5kvd/GGTbJQqAZrYAXhdHFMr2sL4WhjD1Hp5&#10;aufeAFqfWC2Nr6WxeFrkY1rdG0ArhWAcEKhBoJkzgCW82D186vUaRRnLeeXlV5Ik3XvwYVL7WOMw&#10;/1uX/zPocmtjqE86f0wf19MIsANI40VrCDRFAANoqpwMBgJpBDCANF60hkBTBJo7A8itzv7+w9wQ&#10;pvu/funzgb7Y8/rhyf2pe/4PhlMovL77wDSO7sWxA+h+CgCgZwIYQM/VZ+zdE8AAup8CAOiZAGcA&#10;QfX3Hj1xNR9i9+Tagwnza+cjviwBdgCyPIkGAVcEMICEcvFEWwIsmroggAFMLBOLfyIomrki0NwZ&#10;QOx7/Nh1Kwt93ZNzsXtu69/D834AW/7ADsBWPZ6q6eGx2R7GaHBqnZKEARirUk8Lo6exGptmX8nB&#10;AKxWBl0QKECguTOA2Pf4sesFmCelCN9fEOus/Q7DMH5M392b1waSX3v7ndgQuF6QADuAgrBJBQFr&#10;BNwbgOSpvWQsa4Ve6AmfBJyisXUmUxi03Ma9ASyKIzFJJWJYnihzFv9yPK2zsVw3bW3NnAEwSVdP&#10;lZyF/3zEJV9O7rWXZNn4TewAyiIjGwTaIYABtFNLRgKBZAIYQDIyOkCgHQIYQDu1ZCQQSCaAASQj&#10;owME2iGAAbRTS0YCgWQCGEAyMjpAoB0CzfwOwHtJev1+nfcD1J257ADq8n+avdfF/zx6GNSZiBhA&#10;He5fZWXi/78AsCg/GTGA8szJCAEzBDgDMFOKZ0Jiz9eHcrWf/4/hib0f4Pjw/iAE7weIES17nR1A&#10;Wd5kg4ApAhiAqXLIipF6EvB5VTx1KVuj2tEwgNoVUMqvsfiXUjEBpaJVCMsZQAXomik1F/6qnQAn&#10;95rV1I/NDkCfMRkgYJYABmC2NAiDgD4BDECfMRkgYJYABmC2NAiDgD4BDECfMRkgYJYABmC2NAiD&#10;gD4BDECfMRkgYJYAvwOoVBq+P18NnvcDlJ2Q7ADK8n6ajcUfhw6jOCOJFhiABMWEGEzs6bBgNZ3V&#10;3JYYwFxy9INAAwQ4A6hcRG/P/8dw8X6AGCFb19kB2KoHaiBQlAAGUBS3brIL5451E6yIzqPBxZGL&#10;JsQARHHWC1Zj8S9HiwnUq3tu5q2d3ce5MeifROB8UutY49yFL1X/C+eeKT36VHZ8UvpiHHu9zg6g&#10;18ozbgj8jwAGwDSAQMcEMICOi8/QIbB19eJZKBQkcHQgm2xq/e4cvLAm8er/P/fdgvbGt3rYc8cn&#10;W7360dgB1K+BuoL1i3996jl91AeyJsEcrXP61BqfZl4MQJOugdg5Ez2nb6mh52jM6VtqfNp5MABt&#10;wsSHgGECPAtguDhTpKV+ir3x4rjn7z16Mki7jF/rnrn18U2psWYbdgCadBuKnboQvQ299fGtqwcG&#10;4G2mVtTb+iJpfXyrpg4GUHFBkRoCtQlsfvHZ5ZPaIkrmD39bHvse/fqNM6LywrfcpL4PICbm/Hd+&#10;MNrk+PD+6PX9/YeD6+GZQOzBH+/jC886pOsfq1/p6+wAShMnHwQMEcAADBUDKRAoTQADKE2cfBAw&#10;RIDfARgqhoSU2D2+RI6aMVofX2m27ABKEycfBAwRwAAMFQMpEChNAAMoTZx8EDBEgDOAysUI36Nf&#10;WY54+tbHJw6scEB2AIWBkw4ClghgAIWrEfslXWE5SemmaJ/SJilpwca1nngsOMRTqTCACvQ9LpIU&#10;zSltK+BfmbLHxb8AwRlApRnocZGkoLI6vtRnQVLG7LEtOwCPVUMzBIQIYABCIAkDAY8EMACPVUMz&#10;BIQIYABCIAkDAY8EMACPVUMzBIQIYABCIAkDAY8EMACPVUMzBIQIYABCIAkDAY8EMACPVUMzBIQI&#10;YABCIAkDAY8EMACPVUMzBIQIYABCIAkDAY8EMACPVUMzBIQIYABCIAkDAY8EMACPVUMzBIQIYABC&#10;IAkDAY8EMACPVUMzBIQIYABCIAkDAY8EMACPVUMzBIQIYABCIAkDAY8EMACPVUMzBIQIYABCIAkD&#10;AY8EMACPVUMzBIQIbIXvSReK20wY+DRTylkDab3+7ABmTQs6QaANAhhAG3VkFBCYRQADmIWNThBo&#10;g8B/AceybNhKUmePAAAAAElFTkSuQmCC&#10;"
       id="image1" />
  </g>
</svg>
